-------------------------------------------------------------------------------
Test set: jpa.JpaTest
-------------------------------------------------------------------------------
Tests run: 4, Failures: 0, Errors: 0, Skipped: 0, Time elapsed: 4.156 sec
